<svg width="1600" height="414" viewBox="0 0 1600 414" fill="none" xmlns="http://www.w3.org/2000/svg">
<path d="M0 -3H1600C1600 -3 1509.36 176.877 1255 217.5C1000.64 258.123 835.724 155.603 653.146 208.413C470.568 261.223 549.129 263.952 326.829 367.831C104.53 471.711 0 367.831 0 367.831V-3Z" fill="white"/>
</svg>
